{
    "version": "1.0",
    "devices": [
        {
            "name": "LV",
            "hw-type": "PS",
            "hw-model": "AgilentE3631APs",
            "communication": {
                "protocol": "GPIBSerialCom",
                "port": "/dev/ttyUSB0",
                "gpib_addr": 5,
                "read_tmo_ms": 1000
            }
        },
        {
            "name": "HV",
            "hw-type": "PS",
            "hw-model": "Keithley24XX",
            "communication": {
                "protocol": "GPIBSerialCom",
                "port": "/dev/ttyUSB0",
                "gpib_addr": 3,
                "read_tmo_ms": 1000
            }
        }
    ],
    "channels": [
        {
            "name": "Vin",
            "hw-type": "PS",
            "device": "LV",
            "channel": 2
        },
        {
            "name": "HVin",
            "hw-type": "PS",
            "device": "HV",
            "channel": 1
        }
    ],
    "testbenches": {
        "comment": "Rename massive or single to default for your corresponding setup!",
        "massive_20210524": {
            "type": "PBv3TBMassive20210524",
	    "pbdev": "/dev/uio0",
            "i2cdev": "/dev/i2c-2",
            "zturn_adapter": true
        },
        "massive_20190718": {
            "type": "PBv3TBMassive20190718"
        },
        "single": {
            "type": "PBv3TBSingle",
            "bkdev": "/dev/ttyUSB0"
        },
        "module": {
            "type": "PBv3TBModule",
            "ip": "192.168.222.16",
            "port": 60003,
            "pbs": [
                {
                    "idpads": 4,
                    "commid": 0
                },
                {
                    "idpads": 0,
                    "commid": 1
                }
            ]
        }
    }
}
